{
  "info": {
    "_postman_id": "ed7335bf-83bc-4ca2-95ae-a6fa9839284a",
    "name": "Route Mobile WhatsApp Business Messaging API",
    "schema": "https://schema.getpostman.com/json/collection/v2.0.0/collection.json"
  },
  "item": [
    {
      "name": "Template API",
      "item": [
        {
          "name": "Text HSM",
          "_postman_id": "e492b7c4-0add-4cf0-877b-96c73df9e844",
          "protocolProfileBehavior": {
            "disableBodyPruning": true
          },
          "request": {
            "method": "POST",
            "header": [
              {
                "key": "Content-Type",
                "name": "Content-Type",
                "type": "text",
                "value": "application/json"
              },
              {
                "key": "Authorization",
                "type": "text",
                "value": "{token}"
              }
            ],
            "body": {
              "mode": "raw",
              "raw": "{\n    \"phone\": \"{mobile number}\",\n    \"media\": {\n        \"type\": \"hsm\",\n        \"lang_code\": \"{code}\",\n        \"element_name\": \"{your template}\",\n        \"localizable_params\": [\n            {\n       \"default\": \"{variable1}\"\n     },\n      {\n       \"default\": \"{variable2}\"\n     }\n        ]\n    }\n}",
              "options": {
                "raw": {}
              }
            },
            "url": "https://apis.rmlconnect.net/wba/v1/messages"
          },
          "response": []
        },
        {
          "name": "Text HSM with Header",
          "_postman_id": "d27bcba0-4653-40bb-b557-ba103a17bbe5",
          "protocolProfileBehavior": {
            "disableBodyPruning": true
          },
          "request": {
            "method": "POST",
            "header": [
              {
                "key": "Content-Type",
                "name": "Content-Type",
                "type": "text",
                "value": "application/json"
              },
              {
                "key": "Authorization",
                "type": "text",
                "value": "{token}"
              }
            ],
            "body": {
              "mode": "raw",
              "raw": "{\n\t\"phone\": \"{mobile number}\",\n\t\"media\": {\n\t\t\"type\": \"media_template\",\n\t\t\"lang_code\": \"{code}\",\n\t\t\"template_name\": \"{your template}\",\n\t\t\"header\": [\n            {\n                \"text\": \"{variable}\"\n            }\n        ],\n\t\t\"body\": [\n\t\t\t{\n        \t\t\"text\": \"{variable}\"\n        \t},\n        \t{\n        \t\t\"text\": \"{variable}\"\n        \t}\n\t\t]\n\t}\n}",
              "options": {
                "raw": {}
              }
            },
            "url": "https://apis.rmlconnect.net/wba/v1/messages"
          },
          "response": []
        },
        {
          "name": "Media Image",
          "_postman_id": "593e2840-ede0-4a14-8162-27087de6b5e9",
          "protocolProfileBehavior": {
            "disableBodyPruning": true
          },
          "request": {
            "method": "POST",
            "header": [
              {
                "key": "Content-Type",
                "name": "Content-Type",
                "value": "application/json",
                "type": "text"
              },
              {
                "key": "Authorization",
                "value": "{token}",
                "type": "text"
              }
            ],
            "body": {
              "mode": "raw",
              "raw": "{\n    \"phone\": \"{mobile number}\",\n    \"media\": {\n        \"type\": \"media_template\",\n        \"lang_code\": \"{code}\",\n        \"template_name\": \"{your template}\",\n        \"header\": [\n            {\n                \"image\": {\n                    \"link\": \"{sample image url https://}\"\n                }\n            }\n        ],\n        \"body\": [\n            {\n                \"text\": \"{variable}\"\n            }\n        ]\n    }\n}",
              "options": {
                "raw": {}
              }
            },
            "url": "https://apis.rmlconnect.net/wba/v1/messages"
          },
          "response": []
        },
        {
          "name": "Media Document",
          "_postman_id": "3362d052-16ae-45a8-af6e-c792e27a6cc9",
          "protocolProfileBehavior": {
            "disableBodyPruning": true
          },
          "request": {
            "method": "POST",
            "header": [
              {
                "key": "Content-Type",
                "name": "Content-Type",
                "value": "application/json",
                "type": "text"
              },
              {
                "key": "Authorization",
                "value": "{token}",
                "type": "text"
              }
            ],
            "body": {
              "mode": "raw",
              "raw": "{\n    \"phone\": \"{mobile number}\",\n    \"media\": {\n        \"type\": \"media_template\",\n        \"lang_code\": \"{code}\",\n        \"template_name\": \"{your template}\",\n        \"header\": [\n            {\n                \"document\": {\n                    \"link\": \"{sample pdf url https://}\"\n                }\n            }\n        ],\n        \"body\": [\n            {\n                \"text\": \"{variable}\"\n            }\n        ]\n    }\n}",
              "options": {
                "raw": {}
              }
            },
            "url": "https://apis.rmlconnect.net/wba/v1/messages"
          },
          "response": []
        },
        {
          "name": "Media Video",
          "_postman_id": "730fe67a-116f-4fff-9c41-f17624f635b4",
          "protocolProfileBehavior": {
            "disableBodyPruning": true
          },
          "request": {
            "method": "POST",
            "header": [
              {
                "key": "Content-Type",
                "name": "Content-Type",
                "value": "application/json",
                "type": "text"
              },
              {
                "key": "Authorization",
                "value": "{token}",
                "type": "text"
              }
            ],
            "body": {
              "mode": "raw",
              "raw": "{\n    \"phone\": \"{mobile number}\",\n    \"media\": {\n        \"type\": \"media_template\",\n        \"lang_code\": \"{code}\",\n        \"template_name\": \"{your template}\",\n        \"header\": [\n            {\n                \"video\": {\n                    \"link\": \"{sample video mp4 url https://}\"\n                }\n            }\n        ],\n        \"body\": [\n            {\n                \"text\": \"{variable}\"\n            }\n        ]\n    }\n}",
              "options": {
                "raw": {}
              }
            },
            "url": "https://apis.rmlconnect.net/wba/v1/messages"
          },
          "response": []
        },
        {
          "name": "Call to Action",
          "_postman_id": "53a67d7e-c356-425f-97ed-cbe8816cbef5",
          "protocolProfileBehavior": {
            "disableBodyPruning": true
          },
          "request": {
            "method": "POST",
            "header": [
              {
                "key": "Content-Type",
                "name": "Content-Type",
                "value": "application/json",
                "type": "text"
              },
              {
                "key": "Authorization",
                "value": "{token}",
                "type": "text"
              }
            ],
            "body": {
              "mode": "raw",
              "raw": "{\n    \"phone\": \"{mobile number}\",\n    \"media\": {\n        \"type\": \"call_to_action\",\n        \"lang_code\": \"{code}\",\n        \"template_name\": \"{your template}\",\n        \"header\": [\n            {\n                \"image\": {\n                    \"link\": \"{image URL with https://}\"\n                }\n            }\n        ],\n        \"button\": [\n        \t{\n        \t\t\"url\": \"{dynamic_url with https://}\"\n        \t}\n        ]\n    }\n}",
              "options": {
                "raw": {}
              }
            },
            "url": "https://apis.rmlconnect.net/wba/v1/messages"
          },
          "response": []
        },
        {
          "name": "Quick Reply",
          "_postman_id": "7db595b4-ddb6-442d-a96d-94a8156cacab",
          "protocolProfileBehavior": {
            "disableBodyPruning": true
          },
          "request": {
            "method": "POST",
            "header": [
              {
                "key": "Content-Type",
                "name": "Content-Type",
                "value": "application/json",
                "type": "text"
              },
              {
                "key": "Authorization",
                "value": "{token}",
                "type": "text"
              }
            ],
            "body": {
              "mode": "raw",
              "raw": "{\n    \"phone\": \"{mobile number}\",\n    \"media\": {\n        \"type\": \"quick_reply\",\n        \"lang_code\": \"{code}\",\n        \"template_name\": \"{your template}\",\n        \"header\": [\n            {\n                \"video\": {\n                    \"link\": \"{video URL https://}\"\n                }\n            }\n        ]\n    }\n}",
              "options": {
                "raw": {}
              }
            },
            "url": "https://apis.rmlconnect.net/wba/v1/messages"
          },
          "response": []
        }
      ],
      "_postman_id": "8f0526fe-ea80-4a09-8090-872475139648",
      "event": [
        {
          "listen": "prerequest",
          "script": {
            "id": "58b48c79-48a4-4695-8948-f4e08b445af7",
            "type": "text/javascript",
            "exec": [
              ""
            ]
          }
        },
        {
          "listen": "test",
          "script": {
            "id": "5b829bf4-1f09-49f2-a3d8-20d13b06236b",
            "type": "text/javascript",
            "exec": [
              ""
            ]
          }
        }
      ]
    },
    {
      "name": "Session API",
      "item": [
        {
          "name": "Session Text",
          "_postman_id": "5c3a3976-384c-4fb3-a40f-cce70d16895f",
          "protocolProfileBehavior": {
            "disableBodyPruning": true
          },
          "request": {
            "method": "POST",
            "header": [
              {
                "key": "Content-Type",
                "name": "Content-Type",
                "type": "text",
                "value": "application/json"
              },
              {
                "key": "Authorization",
                "type": "text",
                "value": "{token}"
              }
            ],
            "body": {
              "mode": "raw",
              "raw": "{\n    \"phone\": \"{mobile number}\",\n    \"text\": \"{sample text}\"\n}",
              "options": {
                "raw": {}
              }
            },
            "url": "https://apis.rmlconnect.net/wba/v1/messages"
          },
          "response": []
        },
        {
          "name": "Session Text With Preview Url",
          "_postman_id": "e3310eec-a645-404f-b20b-957ffce2be3a",
          "protocolProfileBehavior": {
            "disableBodyPruning": true
          },
          "request": {
            "method": "POST",
            "header": [
              {
                "key": "Content-Type",
                "name": "Content-Type",
                "type": "text",
                "value": "application/json"
              },
              {
                "key": "Authorization",
                "type": "text",
                "value": "{token}"
              }
            ],
            "body": {
              "mode": "raw",
              "raw": "{\n    \"phone\": \"{mobile number}\",\n    \"text\": \"{text with valid url}\",\n    \"preview_url\": true\n}",
              "options": {
                "raw": {}
              }
            },
            "url": "https://apis.rmlconnect.net/wba/v1/messages"
          },
          "response": []
        },
        {
          "name": "Session Document",
          "_postman_id": "15ab5c02-1703-4eeb-988d-2c10b4f633d4",
          "protocolProfileBehavior": {
            "disableBodyPruning": true
          },
          "request": {
            "method": "POST",
            "header": [
              {
                "key": "Content-Type",
                "name": "Content-Type",
                "type": "text",
                "value": "application/json"
              },
              {
                "key": "Authorization",
                "type": "text",
                "value": "{token}"
              }
            ],
            "body": {
              "mode": "raw",
              "raw": "{\n    \"phone\": \"{mobile number}\",\n    \"media\": {\n        \"type\": \"document\",\n        \"url\": \"{sample pdf url https://}\",\n        \"file\": \"{sample .pdf file name}\",\n        \"caption\": \"{sample text}\"\n    }\n}",
              "options": {
                "raw": {}
              }
            },
            "url": "https://apis.rmlconnect.net/wba/v1/messages"
          },
          "response": []
        },
        {
          "name": "Session Audio",
          "_postman_id": "1ff14028-e713-41d2-8574-25451d18d744",
          "protocolProfileBehavior": {
            "disableBodyPruning": true
          },
          "request": {
            "method": "POST",
            "header": [
              {
                "key": "Content-Type",
                "name": "Content-Type",
                "value": "application/json",
                "type": "text"
              },
              {
                "key": "Authorization",
                "value": "{token}",
                "type": "text"
              }
            ],
            "body": {
              "mode": "raw",
              "raw": "{\n    \"phone\": \"{mobile number}\",\n    \"media\": {\n        \"type\": \"audio\",\n        \"url\": \"{sample .mp3 url https://}\",\n        \"file\": \"{sample audio.mp3 file name}\",\n        \"caption\": \"{sample text}\"\n    }\n}",
              "options": {
                "raw": {}
              }
            },
            "url": "https://apis.rmlconnect.net/wba/v1/messages"
          },
          "response": []
        },
        {
          "name": "Session Image",
          "_postman_id": "137e3f81-e0eb-4dae-97d4-4ee1737bc9de",
          "protocolProfileBehavior": {
            "disableBodyPruning": true
          },
          "request": {
            "method": "POST",
            "header": [
              {
                "key": "Content-Type",
                "name": "Content-Type",
                "type": "text",
                "value": "application/json"
              },
              {
                "key": "Authorization",
                "type": "text",
                "value": "{token}"
              }
            ],
            "body": {
              "mode": "raw",
              "raw": "{\n    \"phone\": \"{mobile number}\",\n    \"media\": {\n        \"type\": \"image\",\n        \"url\": \"{sample image url https://}\",\n        \"file\": \"{sample image .jpg file name}\",\n        \"caption\": \"{sample text}\"\n    }\n}",
              "options": {
                "raw": {}
              }
            },
            "url": "https://apis.rmlconnect.net/wba/v1/messages"
          },
          "response": []
        },
        {
          "name": "Session Location",
          "_postman_id": "6e2cea72-aab7-47af-a6e1-9afc280394c0",
          "protocolProfileBehavior": {
            "disableBodyPruning": true
          },
          "request": {
            "method": "POST",
            "header": [
              {
                "key": "Content-Type",
                "name": "Content-Type",
                "value": "application/json",
                "type": "text"
              },
              {
                "key": "Authorization",
                "value": "{token}",
                "type": "text"
              }
            ],
            "body": {
              "mode": "raw",
              "raw": "{\n    \"phone\": \"{mobile number}\",\n    \"media\": {\n        \"type\": \"location\",\n        \"longitude\": \"{example: 72.838249}\",\n        \"latitude\": \"{example: 18.991341}\",\n        \"name\": \"{location name}\",\n        \"address\": \"{location address}\"\n    }\n}",
              "options": {
                "raw": {}
              }
            },
            "url": "https://apis.rmlconnect.net/wba/v1/messages"
          },
          "response": []
        }
      ],
      "_postman_id": "86661245-e45b-4790-8486-5a47877e0399"
    },
    {
      "name": "Login",
      "_postman_id": "662b1e61-ac43-4159-8b41-f0be0fb2f271",
      "protocolProfileBehavior": {
        "disableBodyPruning": true
      },
      "request": {
        "method": "POST",
        "header": [
          {
            "key": "Content-Type",
            "value": "application/json"
          }
        ],
        "body": {
          "mode": "raw",
          "raw": "{\r\n  \"username\":\"{username}\",\r\n  \"password\":\"{password}\"\r\n}\r\n",
          "options": {
            "raw": {}
          }
        },
        "url": "https://apis.rmlconnect.net/auth/v1/login/"
      },
      "response": []
    }
  ]
}